…
``` r
data("instacart")

# 1）
instacart %>%
  count(aisle) %>%
  arrange(desc(n))
```

    ## # A tibble: 134 × 2
    ##    aisle                              n
    ##    <chr>                          <int>
    ##  1 fresh vegetables              150609
    ##  2 fresh fruits                  150473
    ##  3 packaged vegetables fruits     78493
    ##  4 yogurt                         55240
    ##  5 packaged cheese                41699
    ##  6 water seltzer sparkling water  36617
    ##  7 milk                           32644
    ##  8 chips pretzels                 31269
    ##  9 soy lactosefree                26240
    ## 10 bread                          23635
    ## # ℹ 124 more rows
…
``` r
# To ensure the dataset has distinct product name for each order on rows level 
instacart %>%
  group_by(order_id) %>%
  count(product_name) %>%
  ungroup(order_id) %>%
  arrange(desc(n))
```

    ## # A tibble: 1,384,617 × 3
    ##    order_id product_name                                      n
    ##       <int> <chr>                                         <int>
    ##  1        1 Bag of Organic Bananas                            1
    ##  2        1 Bulgarian Yogurt                                  1
    ##  3        1 Cucumber Kirby                                    1
    ##  4        1 Lightly Smoked Sardines in Olive Oil              1
    ##  5        1 Organic 4% Milk Fat Whole Milk Cottage Cheese     1
    ##  6        1 Organic Celery Hearts                             1
    ##  7        1 Organic Hass Avocado                              1
    ##  8        1 Organic Whole String Cheese                       1
    ##  9       36 Asparagus                                         1
    ## 10       36 Cage Free Extra Large Grade AA Eggs               1
    ## # ℹ 1,384,607 more rows
…
